<?xml version="1.0" encoding="utf-8"?>
<resources>

    <string name="app_name">Hypebeaststore</string>
    <string name="hello_world">Hello world!</string>
    <string name="action_settings">Settings</string>
<string name="mock_dt"><![CDATA[
    {
    "products": [
        {
            "id": 196795,
            "name": "Horn/Gold Abbeyhorn Comb",
            "description": "Carhartt Work In Progress (WIP) represents the forward-thinking way of living that still encompasses the classic aesthetics of the iconic brand. Horn double-tooth comb manufactured by Abbeyhorn. Available now in horn/gold.",
            "price": "36.00",
            "sale_price": "0.00",
            "available_on": {
                "date": "2014-10-16 23:42:00",
                "timezone_type": 3,
                "timezone": "America/New_York"
            },
            "sold_out_at": null,
            "back_in_stock_at": null,
            "slug": "horn-gold-abbeyhorn-comb",
            "has_variants": false,
            "master": {
                "id": 218208,
                "presentation": null,
                "sku": "0-0070-00-14-02304",
                "price": "36.00",
                "sale_price": "0.00",
                "is_master": true,
                "on_hand": 9,
                "on_hold": 0,
                "in_stock": true,
                "option_values": [
                ],
                "product_id": 196795
            },
            "options": [
            ],
            "variants": [
            ],
            "attributes": [
            ],
            "categories": [
                {
                    "id": 22,
                    "name": "Grooming",
                    "slug": "grooming",
                    "permalink": "category/home-tech/grooming",
                    "description": null,
                    "level": 2,
                    "parent_id": 3780,
                    "taxonomy_id": 1
                },
                {
                    "id": 3780,
                    "name": "Home & Tech",
                    "slug": "home-tech",
                    "permalink": "category/home-tech",
                    "description": null,
                    "level": 1,
                    "parent_id": 1,
                    "taxonomy_id": 1
                }
            ],
            "brands": [
                {
                    "id": 126,
                    "name": "Carhartt WORK IN PROGRESS",
                    "slug": "carhartt-work-in-progress",
                    "permalink": "brand/carhartt-work-in-progress",
                    "description": "Founded by Hamilton Carhartt in Detroit, the company started out producing work overalls in 1889. Evolving from the Carhartt legacy, Carhartt Work In Progress (Carhartt WIP) represents the forward-thinking way of living that still encompasses the classic aesthetics of the iconic brand. Carhartt Work In Progress introduced the brand's authentic designs and craftsmanship across Europe in the 1990s. Not only do they remain true to Carhartt's core values by making high quality, durable clothing but they have also withstood the test of time with their individual approach to apparel.",
                    "level": 1,
                    "parent_id": 91,
                    "taxonomy_id": 2
                }
            ],
            "images": [
                {
                    "id": 239647,
                    "path": "/1e/3f/Carhartt_Abbeyhorn_Comb_1_1-0c9c373c2b6f96151db75d873246.jpg",
                    "position": 1,
                    "is_model": false,
                    "created_at": {
                        "date": "2015-02-02 03:13:16",
                        "timezone_type": 3,
                        "timezone": "America/New_York"
                    },
                    "small_url": "https://photon-101medialablimit.netdna-ssl.com/s3.store.hypebeast.com/media/image/1e/3f/Carhartt_Abbeyhorn_Comb_1_1-0c9c373c2b6f96151db75d873246.jpg?resize=120,132",
                    "medium_url": "https://photon-101medialablimit.netdna-ssl.com/s3.store.hypebeast.com/media/image/1e/3f/Carhartt_Abbeyhorn_Comb_1_1-0c9c373c2b6f96151db75d873246.jpg?resize=260,286",
                    "large_url": "https://photon-101medialablimit.netdna-ssl.com/s3.store.hypebeast.com/media/image/1e/3f/Carhartt_Abbeyhorn_Comb_1_1-0c9c373c2b6f96151db75d873246.jpg?resize=640,704",
                    "full_url": "https://photon-101medialablimit.netdna-ssl.com/s3.store.hypebeast.com/media/image/1e/3f/Carhartt_Abbeyhorn_Comb_1_1-0c9c373c2b6f96151db75d873246.jpg?fit=1400,1540"
                },
                {
                    "id": 239648,
                    "path": "/7c/a8/Carhartt_Abbeyhorn_Comb_1_2-231bec5ebf9f4b96fac4d9552fff.jpg",
                    "position": 2,
                    "is_model": true,
                    "created_at": {
                        "date": "2015-02-02 03:13:16",
                        "timezone_type": 3,
                        "timezone": "America/New_York"
                    },
                    "small_url": "https://photon-101medialablimit.netdna-ssl.com/s3.store.hypebeast.com/media/image/7c/a8/Carhartt_Abbeyhorn_Comb_1_2-231bec5ebf9f4b96fac4d9552fff.jpg?resize=120,132",
                    "medium_url": "https://photon-101medialablimit.netdna-ssl.com/s3.store.hypebeast.com/media/image/7c/a8/Carhartt_Abbeyhorn_Comb_1_2-231bec5ebf9f4b96fac4d9552fff.jpg?resize=260,286",
                    "large_url": "https://photon-101medialablimit.netdna-ssl.com/s3.store.hypebeast.com/media/image/7c/a8/Carhartt_Abbeyhorn_Comb_1_2-231bec5ebf9f4b96fac4d9552fff.jpg?resize=640,704",
                    "full_url": "https://photon-101medialablimit.netdna-ssl.com/s3.store.hypebeast.com/media/image/7c/a8/Carhartt_Abbeyhorn_Comb_1_2-231bec5ebf9f4b96fac4d9552fff.jpg?fit=1400,1540"
                }
            ],
            "product_group": [
            ]
        }
    ],
    "current_page": 1,
    "pages": 44,
    "adapter": {
        "facets": {
            "size": {
                "_type": "terms",
                "missing": 417,
                "total": 0,
                "other": 0,
                "terms": [
                ]
            },
            "brand": {
                "_type": "terms",
                "missing": 0,
                "total": 417,
                "other": 0,
                "terms": [
                    {
                        "term": "retaW",
                        "count": 58
                    },
                    {
                        "term": "Krink",
                        "count": 42
                    },
                    {
                        "term": "(MALIN+GOETZ)",
                        "count": 24
                    },
                    {
                        "term": "Terrapin Stationers",
                        "count": 23
                    },
                    {
                        "term": "SECOND LAB",
                        "count": 20
                    },
                    {
                        "term": "mophie",
                        "count": 19
                    },
                    {
                        "term": "Baxter of California",
                        "count": 18
                    },
                    {
                        "term": "snow peak",
                        "count": 14
                    },
                    {
                        "term": "MOLESKINE",
                        "count": 14
                    },
                    {
                        "term": "Carhartt WORK IN PROGRESS",
                        "count": 14
                    },
                    {
                        "term": "Lomography",
                        "count": 13
                    },
                    {
                        "term": "DSPTCH",
                        "count": 11
                    },
                    {
                        "term": "Fisher Space Pen",
                        "count": 10
                    },
                    {
                        "term": "Field Notes",
                        "count": 9
                    },
                    {
                        "term": "Nocs",
                        "count": 8
                    },
                    {
                        "term": "Blackbird",
                        "count": 8
                    },
                    {
                        "term": "Word.",
                        "count": 7
                    },
                    {
                        "term": "Craft Design Technology",
                        "count": 7
                    },
                    {
                        "term": "olloclip",
                        "count": 6
                    },
                    {
                        "term": "Gentleman's Brand Co.",
                        "count": 6
                    },
                    {
                        "term": "Blind Barber Grooming",
                        "count": 6
                    },
                    {
                        "term": "Miansai",
                        "count": 5
                    },
                    {
                        "term": "IZOLA",
                        "count": 5
                    },
                    {
                        "term": "AIAIAI",
                        "count": 5
                    },
                    {
                        "term": "senz°",
                        "count": 4
                    },
                    {
                        "term": "X-mini",
                        "count": 4
                    },
                    {
                        "term": "POSTALCO",
                        "count": 4
                    },
                    {
                        "term": "Master & Dynamic",
                        "count": 4
                    },
                    {
                        "term": "KeySmart",
                        "count": 4
                    },
                    {
                        "term": "MUJJO",
                        "count": 3
                    },
                    {
                        "term": "Eastern Collective",
                        "count": 3
                    },
                    {
                        "term": "Carbon Audio",
                        "count": 3
                    },
                    {
                        "term": "CHIEFS",
                        "count": 3
                    },
                    {
                        "term": "B&O PLAY by BANG & OLUFSEN",
                        "count": 3
                    },
                    {
                        "term": "Stampd",
                        "count": 2
                    },
                    {
                        "term": "Public - Supply",
                        "count": 2
                    },
                    {
                        "term": "PLAYTYPE",
                        "count": 2
                    },
                    {
                        "term": "Odd Future",
                        "count": 2
                    },
                    {
                        "term": "Obstructures",
                        "count": 2
                    },
                    {
                        "term": "Native Union",
                        "count": 2
                    },
                    {
                        "term": "Mr. Black Garment Essentials",
                        "count": 2
                    },
                    {
                        "term": "Midnight Studios",
                        "count": 2
                    },
                    {
                        "term": "DENIS",
                        "count": 2
                    },
                    {
                        "term": "22DesignStudio",
                        "count": 2
                    },
                    {
                        "term": "Raised by Wolves",
                        "count": 1
                    },
                    {
                        "term": "Pendleton",
                        "count": 1
                    },
                    {
                        "term": "NOMAD",
                        "count": 1
                    },
                    {
                        "term": "Messograf Caliper Pen",
                        "count": 1
                    },
                    {
                        "term": "London Undercover",
                        "count": 1
                    },
                    {
                        "term": "IMPOSSIBLE",
                        "count": 1
                    },
                    {
                        "term": "Gavio",
                        "count": 1
                    },
                    {
                        "term": "Frank",
                        "count": 1
                    },
                    {
                        "term": "Design Rehab",
                        "count": 1
                    },
                    {
                        "term": "Braun",
                        "count": 1
                    }
                ]
            },
            "category": {
                "_type": "terms",
                "missing": 0,
                "total": 1059,
                "other": 0,
                "terms": [
                    {
                        "term": "Home & Tech",
                        "count": 417
                    },
                    {
                        "term": "Stationery",
                        "count": 121
                    },
                    {
                        "term": "Grooming",
                        "count": 67
                    },
                    {
                        "term": "Pens and Markers",
                        "count": 52
                    },
                    {
                        "term": "Notebooks",
                        "count": 50
                    },
                    {
                        "term": "Hair and Body Products",
                        "count": 47
                    },
                    {
                        "term": "Home",
                        "count": 34
                    },
                    {
                        "term": "Candles",
                        "count": 32
                    },
                    {
                        "term": "Tech",
                        "count": 30
                    },
                    {
                        "term": "Photography",
                        "count": 30
                    },
                    {
                        "term": "Audio",
                        "count": 28
                    },
                    {
                        "term": "Lifestyle",
                        "count": 22
                    },
                    {
                        "term": "Fragrances",
                        "count": 21
                    },
                    {
                        "term": "Headphones and Earphones",
                        "count": 19
                    },
                    {
                        "term": "Camera Accessories",
                        "count": 19
                    },
                    {
                        "term": "Skincare",
                        "count": 14
                    },
                    {
                        "term": "Outdoor",
                        "count": 14
                    },
                    {
                        "term": "Rugs",
                        "count": 12
                    },
                    {
                        "term": "Cameras",
                        "count": 11
                    },
                    {
                        "term": "Speakers",
                        "count": 9
                    },
                    {
                        "term": "Umbrellas",
                        "count": 5
                    },
                    {
                        "term": "Blankets and Pillows",
                        "count": 4
                    },
                    {
                        "term": "Towels",
                        "count": 1
                    }
                ]
            },
            "price": {
                "_type": "range",
                "ranges": [
                    {
                        "to": 2000,
                        "count": 130,
                        "min": 350,
                        "max": 1900,
                        "total_count": 130,
                        "total": 156910,
                        "mean": 1207
                    },
                    {
                        "from": 2100,
                        "to": 5000,
                        "count": 139,
                        "min": 2100,
                        "max": 4800,
                        "total_count": 139,
                        "total": 450500,
                        "mean": 3241.0071942446
                    },
                    {
                        "from": 5100,
                        "to": 10000,
                        "count": 90,
                        "min": 5100,
                        "max": 9400,
                        "total_count": 90,
                        "total": 661760,
                        "mean": 7352.8888888889
                    },
                    {
                        "from": 10100,
                        "to": 20000,
                        "count": 23,
                        "min": 10140,
                        "max": 19200,
                        "total_count": 23,
                        "total": 320240,
                        "mean": 13923.47826087
                    },
                    {
                        "from": 20100,
                        "to": 50000,
                        "count": 9,
                        "min": 20500,
                        "max": 39900,
                        "total_count": 9,
                        "total": 280200,
                        "mean": 31133.333333333
                    },
                    {
                        "from": 50100,
                        "count": 1,
                        "min": 79900,
                        "max": 79900,
                        "total_count": 1,
                        "total": 79900,
                        "mean": 79900
                    }
                ]
            }
        }
    }


    }
    ]]></string>
</resources>
